{"photos":{"page":1,"pages":1796,"perpage":100,"total":"179592","photo":[{"id":"49505202046","owner":"81531162@N07","secret":"1442630a4a","server":"65535","farm":66,"title":"Candy Kitten for 60L$ Happy Weekend sale","ispublic":1,"isfriend":0,"isfamily":0},{"id":"49504972126","owner":"186115925@N03","secret":"08d6b57971","server":"65535","farm":66,"title":"Playing Peekaboo with a kitten","ispublic":1,"isfriend":0,"isfamily":0},{"id":"49504909726","owner":"153237179@N02","secret":"731d6a0c60","server":"65535","farm":66,"title":"LOST dmh grey & white cat\/kitten in #haysboro #southwood. Call 403-614-9791 if sighted or found. Pls rt, share, watch, help find FLACKO! YYC Pet Recovery shared a post. missing male kitten in haysboro\/Southwood area. Very friendly and responds to flacko.","ispublic":1,"isfriend":0,"isfamily":0},{"id":"49505102667","owner":"23622772@N07","secret":"7fc105020b","server":"65535","farm":66,"title":"\/\/ Midnight \/\/","ispublic":1,"isfriend":0,"isfamily":0},{"id":"49504824536","owner":"171063614@N04","secret":"6d19c45f2f","server":"65535","farm":66,"title":"Cat Play Guitar Meowtallica and kittens for all shirt","ispublic":1,"isfriend":0,"isfamily":0},{"id":"49504970742","owner":"8740272@N04","secret":"552fda8994","server":"65535","farm":66,"title":"Happy Caturday >\u00f6<","ispublic":1,"isfriend":0,"isfamily":0},{"id":"49504941337","owner":"145355512@N03","secret":"cf8c8341d7","server":"65535","farm":66,"title":"clark-joseph---three-little-kittens_15839968414_o","ispublic":1,"isfriend":0,"isfamily":0},{"id":"49504930302","owner":"100679367@N03","secret":"04b8210709","server":"65535","farm":66,"title":"Happy Caterday from Maurice and my latest little one,   #caterday #handcrafteduniquelycommunity #artdoll #handmadedoll #instadoll #doll #teddy #cat #catlover #catsofinstagram #dollphotography #dollcollector #kitten #dolls #cutecat #ooak #ilovemycat #woode","ispublic":1,"isfriend":0,"isfamily":0},{"id":"49504628131","owner":"184307436@N07","secret":"d3cb178b1d","server":"65535","farm":66,"title":"Oni Visits the Vet!","ispublic":1,"isfriend":0,"isfamily":0},{"id":"49504540786","owner":"186115925@N03","secret":"459366da46","server":"65535","farm":66,"title":"Playing Peekaboo with a kitten","ispublic":1,"isfriend":0,"isfamily":0},{"id":"49504507186","owner":"8070463@N03","secret":"9da8d92f70","server":"65535","farm":66,"title":"Another wildcat kitten portrait","ispublic":1,"isfriend":0,"isfamily":0},{"id":"49504250121","owner":"156443183@N08","secret":"b341a35032","server":"65535","farm":66,"title":"goose","ispublic":1,"isfriend":0,"isfamily":0},{"id":"49504074941","owner":"186115925@N03","secret":"90d57d8e71","server":"65535","farm":66,"title":"Playing Peekaboo with a kitten","ispublic":1,"isfriend":0,"isfamily":0},{"id":"49504060066","owner":"185800017@N03","secret":"a03ff673d7","server":"65535","farm":66,"title":"Cat Play Guitar Meowtallica and kittens for all shirt","ispublic":1,"isfriend":0,"isfamily":0},{"id":"49503353458","owner":"49998540@N03","secret":"2df035d04f","server":"65535","farm":66,"title":"\u3075\u3068\u3093\u306d\u3053 #\u306d\u3053 #\u732b #cat #gatto #chat #kitten","ispublic":1,"isfriend":0,"isfamily":0},{"id":"49503340483","owner":"124651729@N04","secret":"cbd98893d4","server":"65535","farm":66,"title":"Kiwi in a Box","ispublic":1,"isfriend":0,"isfamily":0},{"id":"49503603811","owner":"154605377@N08","secret":"449112a18f","server":"65535","farm":66,"title":"Persian Kittens for sale","ispublic":1,"isfriend":0,"isfamily":0},{"id":"49503033688","owner":"50946698@N04","secret":"f60914c9c9","server":"65535","farm":66,"title":"Snake 4","ispublic":1,"isfriend":0,"isfamily":0},{"id":"49503535757","owner":"130999631@N07","secret":"697b21306f","server":"65535","farm":66,"title":"Sam","ispublic":1,"isfriend":0,"isfamily":0},{"id":"49502093583","owner":"125208863@N02","secret":"345ec20712","server":"65535","farm":66,"title":"38\/366","ispublic":1,"isfriend":0,"isfamily":0},{"id":"49503234696","owner":"83288930@N00","secret":"2f3ca30b1e","server":"65535","farm":66,"title":"Valentine's Candy With Kitten","ispublic":1,"isfriend":0,"isfamily":0},{"id":"49503090201","owner":"68938342@N03","secret":"7f992258ea","server":"65535","farm":66,"title":"37\/365","ispublic":1,"isfriend":0,"isfamily":0},{"id":"49502568698","owner":"38941615@N02","secret":"5f73818d33","server":"65535","farm":66,"title":"Good night! \ud83d\udca4\ud83d\udca4 \ud83d\udc26\ud83d\udc26\ud83d\udc26","ispublic":1,"isfriend":0,"isfamily":0},{"id":"49503238137","owner":"59580107@N04","secret":"c16a895cec","server":"65535","farm":66,"title":"NEW! Alicia Gown - at Collabor88!","ispublic":1,"isfriend":0,"isfamily":0},{"id":"49502462763","owner":"60602272@N05","secret":"0f29707e71","server":"65535","farm":66,"title":"Sully and Serene","ispublic":1,"isfriend":0,"isfamily":0},{"id":"49503187572","owner":"60602272@N05","secret":"21c6233c61","server":"65535","farm":66,"title":"Sweet Pea (1)","ispublic":1,"isfriend":0,"isfamily":0},{"id":"49503187507","owner":"60602272@N05","secret":"8ffe590e6d","server":"65535","farm":66,"title":"Sweet Pea (2)","ispublic":1,"isfriend":0,"isfamily":0},{"id":"49503187022","owner":"60602272@N05","secret":"410355ff1c","server":"65535","farm":66,"title":"Phyllis (1)","ispublic":1,"isfriend":0,"isfamily":0},{"id":"49502461478","owner":"60602272@N05","secret":"80f990b5df","server":"65535","farm":66,"title":"Phyllis (2)","ispublic":1,"isfriend":0,"isfamily":0},{"id":"49502461413","owner":"60602272@N05","secret":"cec99c40f6","server":"65535","farm":66,"title":"Phyllis (3)","ispublic":1,"isfriend":0,"isfamily":0},{"id":"49502966096","owner":"60602272@N05","secret":"44a91b2a6d","server":"65535","farm":66,"title":"Mary (1)","ispublic":1,"isfriend":0,"isfamily":0},{"id":"49502966031","owner":"60602272@N05","secret":"65eabd23ab","server":"65535","farm":66,"title":"Mary (2)","ispublic":1,"isfriend":0,"isfamily":0},{"id":"49502965906","owner":"60602272@N05","secret":"551a600fc0","server":"65535","farm":66,"title":"Mary (3)","ispublic":1,"isfriend":0,"isfamily":0},{"id":"49502460248","owner":"60602272@N05","secret":"3a9e2c48b3","server":"65535","farm":66,"title":"Destiny's Child (1)","ispublic":1,"isfriend":0,"isfamily":0},{"id":"49503185602","owner":"60602272@N05","secret":"d81117eb37","server":"65535","farm":66,"title":"Destiny's Child (2)","ispublic":1,"isfriend":0,"isfamily":0},{"id":"49502460143","owner":"60602272@N05","secret":"7febf7c0b2","server":"65535","farm":66,"title":"Destiny's Child (3)","ispublic":1,"isfriend":0,"isfamily":0},{"id":"49502459548","owner":"60602272@N05","secret":"e66f3a1157","server":"65535","farm":66,"title":"Buddy (2)","ispublic":1,"isfriend":0,"isfamily":0},{"id":"49502964611","owner":"60602272@N05","secret":"29102e7fc9","server":"65535","farm":66,"title":"Buddy (1)","ispublic":1,"isfriend":0,"isfamily":0},{"id":"49502442928","owner":"24167696@N08","secret":"eec2689c83","server":"65535","farm":66,"title":"kittens","ispublic":1,"isfriend":0,"isfamily":0},{"id":"49502357218","owner":"186644222@N04","secret":"02f6fc9d21","server":"65535","farm":66,"title":"Hungry kitten","ispublic":1,"isfriend":0,"isfamily":0},{"id":"49502224773","owner":"186734465@N08","secret":"a5bf5ded7a","server":"65535","farm":66,"title":"Cold-blooded mother shoots daughters after asking them to find kittens under bed","ispublic":1,"isfriend":0,"isfamily":0},{"id":"49502547906","owner":"38941615@N02","secret":"04d9d449bd","server":"65535","farm":66,"title":"Spritz \ud83c\udf1e","ispublic":1,"isfriend":0,"isfamily":0},{"id":"49502761557","owner":"21319001@N03","secret":"10be8b8edf","server":"65535","farm":66,"title":"Sandy","ispublic":1,"isfriend":0,"isfamily":0},{"id":"49501773928","owner":"157986207@N08","secret":"abbe92a2c2","server":"65535","farm":66,"title":"20200206_170815_v1","ispublic":1,"isfriend":0,"isfamily":0},{"id":"49501597288","owner":"184824921@N03","secret":"97b94bbe20","server":"65535","farm":66,"title":"Little Alcedo","ispublic":1,"isfriend":0,"isfamily":0},{"id":"49501194503","owner":"91280126@N05","secret":"ef4ca92b1f","server":"65535","farm":66,"title":"Melo in perfect light #366photos2020","ispublic":1,"isfriend":0,"isfamily":0},{"id":"49501492307","owner":"146123746@N04","secret":"dd71d8e7b0","server":"65535","farm":66,"title":"KPV 69-12_3","ispublic":1,"isfriend":0,"isfamily":0},{"id":"49500669843","owner":"8740272@N04","secret":"5ae9c55efe","server":"65535","farm":66,"title":"Happy Furry Sunny Friday \u263c\u263c\u263c","ispublic":1,"isfriend":0,"isfamily":0},{"id":"49501123876","owner":"13212912@N00","secret":"9621f00acd","server":"65535","farm":66,"title":"Photo of the day: 3.2.2020 (day 34)","ispublic":1,"isfriend":0,"isfamily":0},{"id":"49500619418","owner":"13212912@N00","secret":"4668754493","server":"65535","farm":66,"title":"Photo of the day: 29.1.2020","ispublic":1,"isfriend":0,"isfamily":0},{"id":"49501343967","owner":"13212912@N00","secret":"72a24cd9b9","server":"65535","farm":66,"title":"Photo of the day: 28.1.2020","ispublic":1,"isfriend":0,"isfamily":0},{"id":"49501112391","owner":"48015145@N07","secret":"46f4116318","server":"65535","farm":66,"title":"Eve Kitten","ispublic":1,"isfriend":0,"isfamily":0},{"id":"49501111661","owner":"48015145@N07","secret":"1643191c2f","server":"65535","farm":66,"title":"Eve Kitten","ispublic":1,"isfriend":0,"isfamily":0},{"id":"49501331577","owner":"48015145@N07","secret":"77ae71a722","server":"65535","farm":66,"title":"Eve Kitten","ispublic":1,"isfriend":0,"isfamily":0},{"id":"49501110956","owner":"48015145@N07","secret":"6df3f533a3","server":"65535","farm":66,"title":"Eve Kitten","ispublic":1,"isfriend":0,"isfamily":0},{"id":"49501045872","owner":"8070463@N03","secret":"d1979e021c","server":"65535","farm":66,"title":"Wildcat baby a bit afraid","ispublic":1,"isfriend":0,"isfamily":0},{"id":"49500790246","owner":"41301592@N02","secret":"937ff3df4e","server":"65535","farm":66,"title":"Edward.","ispublic":1,"isfriend":0,"isfamily":0},{"id":"49501010547","owner":"41301592@N02","secret":"197f02874d","server":"65535","farm":66,"title":"William.","ispublic":1,"isfriend":0,"isfamily":0},{"id":"49500286363","owner":"41301592@N02","secret":"c6ae826d03","server":"65535","farm":66,"title":"George at 15 weeks old.","ispublic":1,"isfriend":0,"isfamily":0},{"id":"49501010147","owner":"41301592@N02","secret":"a1b795e2cc","server":"65535","farm":66,"title":"William at 15 weeks old.","ispublic":1,"isfriend":0,"isfamily":0},{"id":"49500286033","owner":"41301592@N02","secret":"106c9ebb02","server":"65535","farm":66,"title":"Fluff and Charles crossing on the fence.","ispublic":1,"isfriend":0,"isfamily":0},{"id":"49500789471","owner":"41301592@N02","secret":"15a8b4a004","server":"65535","farm":66,"title":"William among the plant pots at 15 weeks old.","ispublic":1,"isfriend":0,"isfamily":0},{"id":"49500285843","owner":"41301592@N02","secret":"dc07975eb9","server":"65535","farm":66,"title":"George dozing in the sunshine, at 15 weeks old.","ispublic":1,"isfriend":0,"isfamily":0},{"id":"49500285728","owner":"41301592@N02","secret":"dfdb2fa41c","server":"65535","farm":66,"title":"George at 15 weeks old.","ispublic":1,"isfriend":0,"isfamily":0},{"id":"49500285543","owner":"41301592@N02","secret":"f3291c7065","server":"65535","farm":66,"title":"Charles, William and George at 15 weeks old.","ispublic":1,"isfriend":0,"isfamily":0},{"id":"49500386536","owner":"186611741@N05","secret":"b9c8290298","server":"65535","farm":66,"title":"","ispublic":1,"isfriend":0,"isfamily":0},{"id":"49500599282","owner":"35598418@N07","secret":"7292a81789","server":"65535","farm":66,"title":"Review: Kitten Catfe Purristas","ispublic":1,"isfriend":0,"isfamily":0},{"id":"49500326857","owner":"183807253@N05","secret":"6da8eb0dc9","server":"65535","farm":66,"title":"Close encounters of the animal kind...Happy Fence Friday!#1","ispublic":1,"isfriend":0,"isfamily":0},{"id":"49499511448","owner":"129708539@N04","secret":"1bdfe325cb","server":"65535","farm":66,"title":"The Kitten & the Hare","ispublic":1,"isfriend":0,"isfamily":0},{"id":"49500022761","owner":"88526197@N00","secret":"43dc49b124","server":"65535","farm":66,"title":"Kitten","ispublic":1,"isfriend":0,"isfamily":0},{"id":"49500188737","owner":"186467977@N07","secret":"086303aced","server":"65535","farm":66,"title":"Best 3 Year Old Learning Toys Reviews","ispublic":1,"isfriend":0,"isfamily":0},{"id":"49499287513","owner":"182817446@N05","secret":"17790355a8","server":"65535","farm":66,"title":"Serval cat for sale","ispublic":1,"isfriend":0,"isfamily":0},{"id":"49499669661","owner":"146123746@N04","secret":"6d4fd54479","server":"65535","farm":66,"title":"KPV 69-8_19A","ispublic":1,"isfriend":0,"isfamily":0},{"id":"49499098343","owner":"146375971@N04","secret":"2289091bd2","server":"65535","farm":66,"title":"King and Queen Dragons","ispublic":1,"isfriend":0,"isfamily":0},{"id":"49499546651","owner":"185111469@N02","secret":"ce5ef37462","server":"65535","farm":66,"title":"Baby Cheetah","ispublic":1,"isfriend":0,"isfamily":0},{"id":"49499298591","owner":"186827593@N07","secret":"fb7435c462","server":"65535","farm":66,"title":"\u0438\u043d\u0441\u0442\u04301","ispublic":1,"isfriend":0,"isfamily":0},{"id":"49498711973","owner":"185302634@N02","secret":"42c406a5ee","server":"65535","farm":66,"title":"#Privacy: Charming Kitten launches new phishing campaign","ispublic":1,"isfriend":0,"isfamily":0},{"id":"49498672718","owner":"49998540@N03","secret":"236bd63f42","server":"65535","farm":66,"title":"\u3086\u304b\u306d\u3053 #\u306d\u3053 #\u732b #cat #gatto #chat #kitten","ispublic":1,"isfriend":0,"isfamily":0},{"id":"49499338507","owner":"129005024@N08","secret":"52776e11e5","server":"65535","farm":66,"title":"kitten near manila museum 5feb2020","ispublic":1,"isfriend":0,"isfamily":0},{"id":"49499215272","owner":"24832955@N02","secret":"79cdfcd5bf","server":"65535","farm":66,"title":"Cat in Zutphen","ispublic":1,"isfriend":0,"isfamily":0},{"id":"49499046742","owner":"186827338@N07","secret":"541b0201f4","server":"65535","farm":66,"title":"Purebred Male Russian Blue Kitten For Sale | London South West Russian Blue Male Cats For Sale","ispublic":1,"isfriend":0,"isfamily":0},{"id":"49499024002","owner":"150569293@N06","secret":"6e49530556","server":"65535","farm":66,"title":"|   \u1d39\u02b8 \u1da0\u1d2c\u1d5b\u1d3c\u1d3f\u1d35\u1d40\u1d31 \u1d37\u1d35\u1d40\u1d40\u1d31\u1d3a   |","ispublic":1,"isfriend":0,"isfamily":0},{"id":"49498650452","owner":"51388540@N05","secret":"44bed47786","server":"65535","farm":66,"title":"GFX2890 - Black cat","ispublic":1,"isfriend":0,"isfamily":0},{"id":"49497786573","owner":"53177511@N00","secret":"a2f9357c62","server":"65535","farm":66,"title":"P1200286","ispublic":1,"isfriend":0,"isfamily":0},{"id":"49497537048","owner":"19872565@N00","secret":"c189af6ffa","server":"65535","farm":66,"title":"20110901_25442c","ispublic":1,"isfriend":0,"isfamily":0},{"id":"49498203357","owner":"97918288@N03","secret":"9a319e8a1d","server":"65535","farm":66,"title":"#627","ispublic":1,"isfriend":0,"isfamily":0},{"id":"49497367813","owner":"83323987@N00","secret":"bb7b60cf7a","server":"65535","farm":66,"title":"Our Lucky Charm \ud83d\ude37 Our Black Cat Can Charm All ill Away","ispublic":1,"isfriend":0,"isfamily":0},{"id":"49497687471","owner":"97484212@N02","secret":"1a08a147e6","server":"65535","farm":66,"title":"1975 kitten monster with pink yarn FINAL","ispublic":1,"isfriend":0,"isfamily":0},{"id":"49497590577","owner":"43749513@N08","secret":"cb09b0f947","server":"65535","farm":66,"title":"You got the cutest little baby face!","ispublic":1,"isfriend":0,"isfamily":0},{"id":"49497585742","owner":"139904998@N07","secret":"c58a6ce065","server":"65535","farm":66,"title":"Kitten","ispublic":1,"isfriend":0,"isfamily":0},{"id":"49496857928","owner":"43749513@N08","secret":"e2186b2512","server":"65535","farm":66,"title":"a whole new outlook","ispublic":1,"isfriend":0,"isfamily":0},{"id":"49497322476","owner":"43749513@N08","secret":"f9e32df6bf","server":"65535","farm":66,"title":"melt my heart","ispublic":1,"isfriend":0,"isfamily":0},{"id":"49496782573","owner":"34398645@N08","secret":"896677fe72","server":"65535","farm":66,"title":"Oscar the Great, My Sister's Cat","ispublic":1,"isfriend":0,"isfamily":0},{"id":"49496406158","owner":"31984487@N00","secret":"5682a4264a","server":"65535","farm":66,"title":"Kittens in the Potting Shed (Adrian Chesterman)","ispublic":1,"isfriend":0,"isfamily":0},{"id":"49496901861","owner":"31984487@N00","secret":"6e93f42b10","server":"65535","farm":66,"title":"Kittens in the Potting Shed (Adrian Chesterman)","ispublic":1,"isfriend":0,"isfamily":0},{"id":"49496403023","owner":"31984487@N00","secret":"b20152fee9","server":"65535","farm":66,"title":"Kittens in the Potting Shed (Adrian Chesterman)","ispublic":1,"isfriend":0,"isfamily":0},{"id":"49497121807","owner":"31984487@N00","secret":"862bd47ce0","server":"65535","farm":66,"title":"Kittens in the Potting Shed (Adrian Chesterman)","ispublic":1,"isfriend":0,"isfamily":0},{"id":"49496862341","owner":"8070463@N03","secret":"74e284a385","server":"65535","farm":66,"title":"Kitten posing on the log","ispublic":1,"isfriend":0,"isfamily":0},{"id":"49496976327","owner":"185729245@N03","secret":"51dd15cc7a","server":"65535","farm":66,"title":"A little kitty.","ispublic":1,"isfriend":0,"isfamily":0},{"id":"49497633631","owner":"183135893@N06","secret":"c73e5734bb","server":"65535","farm":66,"title":"Meine Handt\u00fccher...","ispublic":1,"isfriend":0,"isfamily":0}]},"stat":"ok"}